{
  "fields": [
    {
      "name": "Thématiques",
      "subtype": "tag",
      "tagSeparator": "-"
    },
    {
      "name": "Tags",
      "subtype": "tags",
      "tagSeparator": ",",
      "bgColor" : "#B0B9A8"
    },
    {
      "name": "Organisations_Id",
      "subtype": "tags",
      "tagSeparator": ",",
      "bgColor" : "#f4a261",
      "foreignKey": {
        "ressource": "https://github.com/multi-coop/gitribute-content-test/blob/julien-foreign-keys/data/csv/odf/ODF-Observatoire-apiviz_data-export_solidata-220425b-simplified.csv",
        "fields": "siren",
        "activate": true,
        "returnFields" : [
          "nom"
        ]
      }
    },
    {
      "name": "Organisations_Noms",
      "subtype": "tags",
      "tagSeparator": ",",
      "bgColor" : "#CE6A6B"
    },
    {
      "name": "Field 5",
      "hide": true
    },
    {
      "name": "Organisations copy",
      "hide": true
    }
  ]
}
