dep_code,dep_name,reg_code,reg_name,reg_code_num
01,Ain,ARA-84,Auvergne-Rhône-Alpes,84
02,Aisne,HDF-32,Hauts-de-France,32
2A,Corse-du-Sud,COR-94,Corse,94
2B,Haute-Corse,COR-94,Corse,94
03,Allier,ARA-84,Auvergne-Rhône-Alpes,84
04,Alpes-de-Haute-Provence,PAC-93,Provence-Alpes-Côte d'Azur,93
05,Hautes-Alpes,PAC-93,Provence-Alpes-Côte d'Azur,93
06,Alpes-Maritimes,PAC-93,Provence-Alpes-Côte d'Azur,93
07,Ardèche,ARA-84,Auvergne-Rhône-Alpes,84
08,Ardennes,GES-44,Grand Est,44
09,Ariège,OCC-76,Occitanie,76
10,Aube,GES-44,Grand Est,44
11,Aude,OCC-76,Occitanie,76
12,Aveyron,OCC-76,Occitanie,76
13,Bouches-du-Rhône,PAC-93,Provence-Alpes-Côte d'Azur,93
14,Calvados,NOR-28,Normandie,28
15,Cantal,ARA-84,Auvergne-Rhône-Alpes,84
16,Charente,NAQ-75,Nouvelle-Aquitaine,75
17,Charente-Maritime,NAQ-75,Nouvelle-Aquitaine,75
18,Cher,CVL-24,Centre-Val de Loire,24
19,Corrèze,NAQ-75,Nouvelle-Aquitaine,75
21,Côte-d'Or,BFC-27,Bourgogne-Franche-Comté,27
22,Côtes-d'Armor,BRE-53,Bretagne,53
23,Creuse,NAQ-75,Nouvelle-Aquitaine,75
24,Dordogne,NAQ-75,Nouvelle-Aquitaine,75
25,Doubs,BFC-27,Bourgogne-Franche-Comté,27
26,Drôme,ARA-84,Auvergne-Rhône-Alpes,84
27,Eure,NOR-28,Normandie,28
28,Eure-et-Loir,CVL-24,Centre-Val de Loire,24
29,Finistère,BRE-53,Bretagne,53
30,Gard,OCC-76,Occitanie,76
31,Haute-Garonne,OCC-76,Occitanie,76
32,Gers,OCC-76,Occitanie,76
33,Gironde,NAQ-75,Nouvelle-Aquitaine,75
34,Hérault,OCC-76,Occitanie,76
35,Ille-et-Vilaine,BRE-53,Bretagne,53
36,Indre,CVL-24,Centre-Val de Loire,24
37,Indre-et-Loire,CVL-24,Centre-Val de Loire,24
38,Isère,ARA-84,Auvergne-Rhône-Alpes,84
39,Jura,BFC-27,Bourgogne-Franche-Comté,27
40,Landes,NAQ-75,Nouvelle-Aquitaine,75
41,Loir-et-Cher,CVL-24,Centre-Val de Loire,24
42,Loire,ARA-84,Auvergne-Rhône-Alpes,84
43,Haute-Loire,ARA-84,Auvergne-Rhône-Alpes,84
44,Loire-Atlantique,PDL-52,Pays de la Loire,52
45,Loiret,CVL-24,Centre-Val de Loire,24
46,Lot,OCC-76,Occitanie,76
47,Lot-et-Garonne,NAQ-75,Nouvelle-Aquitaine,75
48,Lozère,OCC-76,Occitanie,76
49,Maine-et-Loire,PDL-52,Pays de la Loire,52
50,Manche,NOR-28,Normandie,28
51,Marne,GES-44,Grand Est,44
52,Haute-Marne,GES-44,Grand Est,44
53,Mayenne,PDL-52,Pays de la Loire,52
54,Meurthe-et-Moselle,GES-44,Grand Est,44
55,Meuse,GES-44,Grand Est,44
56,Morbihan,BRE-53,Bretagne,53
57,Moselle,GES-44,Grand Est,44
58,Nièvre,BFC-27,Bourgogne-Franche-Comté,27
59,Nord,HDF-32,Hauts-de-France,32
60,Oise,HDF-32,Hauts-de-France,32
61,Orne,NOR-28,Normandie,28
62,Pas-de-Calais,HDF-32,Hauts-de-France,32
63,Puy-de-Dôme,ARA-84,Auvergne-Rhône-Alpes,84
64,Pyrénées-Atlantiques,NAQ-75,Nouvelle-Aquitaine,75
65,Hautes-Pyrénées,OCC-76,Occitanie,76
66,Pyrénées-Orientales,OCC-76,Occitanie,76
67,Bas-Rhin,GES-44,Grand Est,44
68,Haut-Rhin,GES-44,Grand Est,44
69,Rhône,ARA-84,Auvergne-Rhône-Alpes,84
70,Haute-Saône,BFC-27,Bourgogne-Franche-Comté,27
71,Saône-et-Loire,BFC-27,Bourgogne-Franche-Comté,27
72,Sarthe,PDL-52,Pays de la Loire,52
73,Savoie,ARA-84,Auvergne-Rhône-Alpes,84
74,Haute-Savoie,ARA-84,Auvergne-Rhône-Alpes,84
75,Paris,IDF-11,Île-de-France,11
76,Seine-Maritime,NOR-28,Normandie,28
77,Seine-et-Marne,IDF-11,Île-de-France,11
78,Yvelines,IDF-11,Île-de-France,11
79,Deux-Sèvres,NAQ-75,Nouvelle-Aquitaine,75
80,Somme,HDF-32,Hauts-de-France,32
81,Tarn,OCC-76,Occitanie,76
82,Tarn-et-Garonne,OCC-76,Occitanie,76
83,Var,PAC-93,Provence-Alpes-Côte d'Azur,93
84,Vaucluse,PAC-93,Provence-Alpes-Côte d'Azur,93
85,Vendée,PDL-52,Pays de la Loire,52
86,Vienne,NAQ-75,Nouvelle-Aquitaine,75
87,Haute-Vienne,NAQ-75,Nouvelle-Aquitaine,75
88,Vosges,GES-44,Grand Est,44
89,Yonne,BFC-27,Bourgogne-Franche-Comté,27
90,Territoire de Belfort,BFC-27,Bourgogne-Franche-Comté,27
91,Essonne,IDF-11,Île-de-France,11
92,Hauts-de-Seine,IDF-11,Île-de-France,11
93,Seine-Saint-Denis,IDF-11,Île-de-France,11
94,Val-de-Marne,IDF-11,Île-de-France,11
95,Val-d'Oise,IDF-11,Île-de-France,11
971,Guadeloupe,GP-01,Guadeloupe,1
972,Martinique,MQ-02,Martinique,2
973,Guyane,GF-03,Guyane,3
974,La Réunion,RE-04,La Réunion,4
976,Mayotte,YT-06,Mayotte,5
987,Polynésie,PF,Polynésie française,-
988,Nouvelle Calédonie,NC,Nouvelle Calédonie,-